Read Stata DTA files (`.dta`) files — read_dta • retroharmonize
…
    See also

    Other import functions:
pull_survey(),
read_csv(),
read_rds(),
read_spss(),
read_surveys()

    Examples

# \donttest{
path <- system.file("examples", "iris.dta", package = "haven")
read_dta(path)
#> # A tibble: 150 × 6
#>    rowid   sepallength sepalwidth petallength petalwidth species
#>  * <chr>         <dbl>      <dbl>       <dbl>      <dbl> <chr>  
#>  1 iris_1         5.10       3.5         1.40      0.200 setosa 
#>  2 iris_2         4.90       3           1.40      0.200 setosa 
#>  3 iris_3         4.70       3.20        1.30      0.200 setosa 
#>  4 iris_4         4.60       3.10        1.5       0.200 setosa 
#>  5 iris_5         5          3.60        1.40      0.200 setosa 
#>  6 iris_6         5.40       3.90        1.70      0.400 setosa 
#>  7 iris_7         4.60       3.40        1.40      0.300 setosa 
#>  8 iris_8         5          3.40        1.5       0.200 setosa 
#>  9 iris_9         4.40       2.90        1.40      0.200 setosa 
#> 10 iris_10        4.90       3.10        1.5       0.100 setosa 
#> # ℹ 140 more rows
…
